<?xml version="1.0" standalone="no"?>
<!DOCTYPE svg PUBLIC "-//W3C//DTD SVG 20010904//EN"
 "http://www.w3.org/TR/2001/REC-SVG-20010904/DTD/svg10.dtd">
<svg version="1.0" xmlns="http://www.w3.org/2000/svg"
 width="700.000000pt" height="700.000000pt" viewBox="0 0 700.000000 700.000000"
 preserveAspectRatio="xMidYMid meet">
<metadata>
Created by potrace 1.11, written by Peter Selinger 2001-2013
</metadata>
<g transform="translate(0.000000,700.000000) scale(0.100000,-0.100000)"
fill="#000000" stroke="none">
<path d="M3289 6896 c-2 -2 -38 -7 -81 -10 -80 -6 -94 -8 -248 -32 -598 -93
-1227 -416 -1670 -856 -142 -141 -195 -202 -344 -391 -21 -28 -24 -28 -64 -17
-46 12 -130 14 -177 5 -43 -9 -138 -62 -174 -97 -36 -35 -87 -120 -97 -163 -4
-17 -8 -66 -8 -110 0 -98 28 -168 99 -244 l47 -50 -26 -63 c-79 -199 -150
-478 -181 -718 -27 -212 -28 -675 -1 -817 2 -10 7 -38 10 -63 55 -402 217
-840 447 -1208 61 -98 193 -281 255 -353 144 -166 318 -336 468 -454 84 -66
266 -190 356 -241 52 -30 102 -59 110 -64 43 -25 200 -98 335 -155 145 -61
543 -169 655 -178 12 -1 20 -8 20 -19 0 -22 -1 -15 16 -88 41 -177 175 -320
361 -387 74 -27 239 -24 323 6 158 55 282 179 335 336 22 64 23 72 24 121 1
44 4 46 79 60 58 11 256 66 342 94 879 294 1598 973 1940 1835 69 173 130 391
169 595 38 202 46 303 46 565 0 203 -6 323 -19 405 -3 14 -7 43 -10 65 -50
367 -195 785 -384 1109 l-40 70 45 50 c219 244 129 629 -177 750 -62 25 -93
30 -180 29 -91 0 -169 -22 -241 -68 -43 -27 -57 -31 -69 -22 -8 7 -42 34 -76
62 -104 85 -115 94 -259 190 -323 216 -739 390 -1095 459 -116 22 -184 33
-260 42 -25 3 -56 7 -70 10 -29 6 -525 15 -531 10z"/>
</g>
</svg>
